week1_homework
…
Question 6.1

First, generate a random sample of size \(n=1000\) air pollution records by (i) pooling observations across the government and the crowd-sourced data; and (ii) drawing observations at random from this pooled sample.

Tip

bind_rows() may be helpful.

pooled_obs <- bind_rows(govt, crowdsourced)

random <- sample_n(pooled_obs,1000)

print(random)

# A tibble: 1,000 × 4
   date          PM latitude longitude
   <date>     <dbl>    <dbl>     <dbl>
 1 2019-02-22    56     31.6      74.3
 2 2019-06-24    56     31.6      74.3
 3 2019-06-09    35     31.6      74.3
 4 2019-08-01   104     31.6      74.4
 5 2019-05-03    42     31.6      74.3
 6 2019-05-30    60     31.6      74.3
 7 2019-10-27   106     31.6      74.4
 8 2019-03-28    45     31.6      74.3
 9 2018-12-01   113     31.6      74.4
10 2019-01-17    29     31.6      74.3
# ℹ 990 more rows

Second, create a stratified random sample. Do so by (i) stratifying your pooled data-set into strata of 0.01 degrees of latitude, and (ii) randomly sampling 200 air pollution observations from each stratum.

stratifying your pooled data-set into strata of 0.01 degrees of latitude

# creating strata -rounding down the latitude to the nearest 0.01 degree and grouping them
# next time use cut_width
stratified_data<-pooled_obs %>%
  mutate(latitude_strata = round(latitude, 2)) %>%
  group_by(latitude_strata)

print(stratified_data)

# A tibble: 7,448 × 5
# Groups:   latitude_strata [5]
   date          PM latitude longitude latitude_strata
   <date>     <dbl>    <dbl>     <dbl>           <dbl>
 1 2018-11-04    28     31.6      74.3            31.6
 2 2018-11-05    34     31.6      74.3            31.6
 3 2018-11-06    44     31.6      74.3            31.6
 4 2018-11-07    60     31.6      74.3            31.6
 5 2018-11-08    25     31.6      74.3            31.6
 6 2018-11-09    60     31.6      74.3            31.6
 7 2018-11-10    62     31.6      74.3            31.6
 8 2018-11-11    48     31.6      74.3            31.6
 9 2018-11-12    46     31.6      74.3            31.6
10 2018-11-13    25     31.6      74.3            31.6
# ℹ 7,438 more rows

randomly sampling 200 air pollution observations from each stratum

# randomly sampling 200 obs from each stratum
stratified_data <- stratified_data %>%
  slice_sample(n = 200, replace = FALSE) 
print(stratified_data)

# A tibble: 1,000 × 5
# Groups:   latitude_strata [5]
   date          PM latitude longitude latitude_strata
   <date>     <dbl>    <dbl>     <dbl>           <dbl>
 1 2019-02-07    87     31.6      74.3            31.6
 2 2019-08-17    35     31.6      74.3            31.6
 3 2019-08-13   115     31.6      74.3            31.6
 4 2019-07-09   117     31.6      74.3            31.6
 5 2019-11-15    85     31.6      74.3            31.6
 6 2019-01-18    56     31.6      74.3            31.6
 7 2019-08-19    45     31.6      74.3            31.6
 8 2018-11-21   105     31.6      74.3            31.6
 9 2018-11-28    82     31.6      74.3            31.6
10 2018-12-05    38     31.6      74.3            31.6
# ℹ 990 more rows
…
